<?xml version="1.0" encoding="UTF-8" standalone="no"?>
<!-- Created with Inkscape (http://www.inkscape.org/) -->

<svg:svg
   xmlns:dc="http://purl.org/dc/elements/1.1/"
   xmlns:cc="http://creativecommons.org/ns#"
   xmlns:rdf="http://www.w3.org/1999/02/22-rdf-syntax-ns#"
   xmlns:svg="http://www.w3.org/2000/svg"
   xmlns:sodipodi="http://sodipodi.sourceforge.net/DTD/sodipodi-0.dtd"
   xmlns:inkscape="http://www.inkscape.org/namespaces/inkscape"
   width="203.40001mm"
   height="120.40001mm"
   viewBox="0 0 203.40001 120.40001"
   version="1.1"
   id="svg4605"
   inkscape:version="0.92.2 (5c3e80d, 2017-08-06)"
   sodipodi:docname="Bottom Layout.svg">
  <svg:defs
     id="defs4599" />
  <sodipodi:namedview
     id="base"
     pagecolor="#ffffff"
     bordercolor="#666666"
     borderopacity="1.0"
     inkscape:pageopacity="0.0"
     inkscape:pageshadow="2"
     inkscape:zoom="1.4"
     inkscape:cx="467.96568"
     inkscape:cy="270.24871"
     inkscape:document-units="mm"
     inkscape:current-layer="layer1"
     showgrid="false"
     inkscape:window-width="1920"
     inkscape:window-height="1137"
     inkscape:window-x="1912"
     inkscape:window-y="-8"
     inkscape:window-maximized="1"
     fit-margin-top="12.7"
     fit-margin-left="12.7"
     fit-margin-right="12.7"
     fit-margin-bottom="12.7" />
  <svg:metadata
     id="metadata4602">
    <rdf:RDF>
      <cc:Work
         rdf:about="">
        <dc:format>image/svg+xml</dc:format>
        <dc:type
           rdf:resource="http://purl.org/dc/dcmitype/StillImage" />
        <dc:title></dc:title>
      </cc:Work>
    </rdf:RDF>
  </svg:metadata>
  <svg:g
     inkscape:label="Layer 1"
     inkscape:groupmode="layer"
     id="layer1"
     transform="translate(12.7,-189.3)">
    <svg:rect
       style="fill:none;fill-opacity:1;stroke:#000000;stroke-width:0.29400635;stroke-miterlimit:4;stroke-dasharray:none;stroke-opacity:1"
       id="rect5150"
       width="177.70599"
       height="94.705994"
       x="0.14700317"
       y="202.147" />
    <svg:circle
       style="fill:none;fill-opacity:1;stroke:#000000;stroke-width:0.02130417;stroke-miterlimit:4;stroke-dasharray:none;stroke-opacity:1"
       id="path5152"
       cx="7.5"
       cy="289.5"
       r="1.2393479" />
    <svg:circle
       style="fill:none;fill-opacity:1;stroke:#000000;stroke-width:0.02130417;stroke-miterlimit:4;stroke-dasharray:none;stroke-opacity:1"
       id="path5152-2"
       cx="7.5"
       cy="234.5"
       r="1.2393479" />
    <svg:circle
       style="fill:none;fill-opacity:1;stroke:#000000;stroke-width:0.02130417;stroke-miterlimit:4;stroke-dasharray:none;stroke-opacity:1"
       id="path5152-7"
       cx="170.5"
       cy="234.5"
       r="1.2393479" />
    <svg:circle
       style="fill:none;fill-opacity:1;stroke:#000000;stroke-width:0.02130417;stroke-miterlimit:4;stroke-dasharray:none;stroke-opacity:1"
       id="path5152-74"
       cx="170.5"
       cy="289.5"
       r="1.2393479" />
    <svg:rect
       style="fill:none;fill-opacity:1;stroke:#000000;stroke-width:0.21154594;stroke-miterlimit:4;stroke-dasharray:none;stroke-opacity:1"
       id="rect5181"
       width="14.788454"
       height="69.788452"
       x="0.10577297"
       y="227.10577" />
    <svg:rect
       style="fill:none;fill-opacity:1;stroke:#000000;stroke-width:0.46537843;stroke-miterlimit:4;stroke-dasharray:none;stroke-opacity:1"
       id="rect5181-5"
       width="52.834621"
       height="94.534622"
       x="30.232689"
       y="202.2327" />
    <svg:rect
       style="fill:none;fill-opacity:1;stroke:#000000;stroke-width:0.21154594;stroke-miterlimit:4;stroke-dasharray:none;stroke-opacity:1"
       id="rect5181-53"
       width="14.788455"
       height="69.78846"
       x="163.10577"
       y="227.10577" />
    <svg:rect
       style="fill:none;fill-opacity:1;stroke:#000000;stroke-width:0.39555234;stroke-miterlimit:4;stroke-dasharray:none;stroke-opacity:1"
       id="rect5181-5-0"
       width="52.904449"
       height="68.204445"
       x="30.197777"
       y="202.19778" />
    <svg:rect
       style="fill:none;fill-opacity:1;stroke:#000000;stroke-width:0.45127583;stroke-miterlimit:4;stroke-dasharray:none;stroke-opacity:1"
       id="rect5181-5-0-0"
       width="55.548725"
       height="84.548721"
       x="92.225639"
       y="202.22565" />
    <svg:circle
       style="fill:none;fill-opacity:1;stroke:#000000;stroke-width:0.02130417;stroke-miterlimit:4;stroke-dasharray:none;stroke-opacity:1"
       id="path5152-2-1"
       cx="32.5"
       cy="216"
       r="1.2393479" />
    <svg:circle
       style="fill:none;fill-opacity:1;stroke:#000000;stroke-width:0.02130417;stroke-miterlimit:4;stroke-dasharray:none;stroke-opacity:1"
       id="path5152-2-6"
       cx="37.599998"
       cy="268.10001"
       r="1.2393479" />
    <svg:circle
       style="fill:none;fill-opacity:1;stroke:#000000;stroke-width:0.02130417;stroke-miterlimit:4;stroke-dasharray:none;stroke-opacity:1"
       id="path5152-2-3"
       cx="80.699997"
       cy="217.3"
       r="1.2393479" />
    <svg:circle
       style="fill:none;fill-opacity:1;stroke:#000000;stroke-width:0.02130417;stroke-miterlimit:4;stroke-dasharray:none;stroke-opacity:1"
       id="path5152-2-2"
       cx="65.5"
       cy="268.10001"
       r="1.2393479" />
    <svg:circle
       style="fill:none;fill-opacity:1;stroke:#000000;stroke-width:0.02130417;stroke-miterlimit:4;stroke-dasharray:none;stroke-opacity:1"
       id="path5152-2-67"
       cx="95.5"
       cy="225.5"
       r="1.2393479" />
    <svg:circle
       style="fill:none;fill-opacity:1;stroke:#000000;stroke-width:0.02130417;stroke-miterlimit:4;stroke-dasharray:none;stroke-opacity:1"
       id="path5152-2-5"
       cx="95.5"
       cy="283.5"
       r="1.2393479" />
    <svg:circle
       style="fill:none;fill-opacity:1;stroke:#000000;stroke-width:0.02130417;stroke-miterlimit:4;stroke-dasharray:none;stroke-opacity:1"
       id="path5152-2-11"
       cx="144.5"
       cy="283.5"
       r="1.2393479" />
    <svg:circle
       style="fill:none;fill-opacity:1;stroke:#000000;stroke-width:0.02130417;stroke-miterlimit:4;stroke-dasharray:none;stroke-opacity:1"
       id="path5152-2-0"
       cx="144.5"
       cy="225.5"
       r="1.2393479" />
    <svg:g
       id="g6529"
       transform="matrix(0.03562153,0,0,0.03562153,44.239135,231.88879)">
      <svg:g
         id="g4"
         style="fill:none;stroke:#00979c;stroke-width:60;stroke-opacity:1">
        <svg:path
           id="path6"
           d="m 174,30 a 145.54455,140 0 0 0 0,280 C 364,320 344,30 544,30 a 145.54455,140 0 0 1 0,280 C 354,320 374,30 174,30"
           inkscape:connector-curvature="0" />
      </svg:g>
      <svg:g
         style="font-size:167px;font-family:sans-serif;text-anchor:middle;fill:#00979c;stroke:#00979c;stroke-width:20"
         transform="translate(0,10)"
         id="g8"
         font-size="167">
        <svg:g
           id="text10">
          <svg:path
             id="path3075"
             d="M 528.06885,194.67432 V 161.89404 H 495.5332 v -13.69922 h 32.53565 v -32.53564 h 13.8623 v 32.53564 h 32.53565 v 13.69922 h -32.53565 v 32.78028 z"
             inkscape:connector-curvature="0" />
        </svg:g>
        <svg:text
           id="text12"
           dy="0"
           y="218"
           x="181">
          <ndash />
        </svg:text>
      </svg:g>
      <svg:g
         id="g14"
         font-size="40"
         style="font-size:40px;font-family:Arial;text-anchor:middle;fill:#00979c;stroke:#00979c">
        <svg:g
           id="text16">
          <svg:path
             id="path3072"
             d="M 681.55078,29.285156 V 15.730469 h -5.15625 v -2.363281 h 13.00781 v 2.363281 h -5.19531 v 13.554687 z m 9.62891,0 V 13.367188 h 3.90625 l 4.02343,12.714843 3.88672,-12.714843 h 3.82813 v 15.917968 h -2.42188 V 15.925781 l -4.10156,13.359375 h -2.40234 l -4.27735,-13.554687 v 13.554687 z"
             inkscape:connector-curvature="0" />
        </svg:g>
      </svg:g>
      <svg:g
         id="g18"
         text-anchor="left"
         letter-spacing="0.1em"
         font-weight="bold"
         font-size="152"
         style="font-weight:bold;font-size:152px;font-family:Consolas;letter-spacing:0.1em;fill:#00979c;stroke:#00979c;stroke-width:2">
        <svg:g
           id="text20"
           style="font-size:182.28144836px;stroke-width:2.39844012"
           transform="scale(1.0171639,0.98312568)">
          <svg:path
             id="path3057"
             style="font-size:182.28144836px;stroke-width:2.39844012"
             d="M 83.275567,494.84543 76.867235,471.88224 H 36.281131 L 29.69479,494.84543 H 7.9776644 L 42.42245,378.5164 h 30.617587 l 34.444783,116.32903 z m -26.43437,-94.96792 -15.308793,54.1148 h 30.439577 z"
             inkscape:connector-curvature="0" />
          <svg:path
             id="path3059"
             style="font-size:182.28144836px;stroke-width:2.39844012"
             d="m 178.15448,494.84543 -16.37685,-37.38194 c -1.54279,-3.56014 -3.69374,-6.24511 -6.45283,-8.05492 -2.75919,-1.80971 -6.00785,-2.71459 -9.74601,-2.71464 h -4.18321 v 48.1515 H 119.50044 V 378.5164 h 33.91076 c 6.40828,1.2e-4 12.22324,0.54898 17.4449,1.64658 5.22154,1.09784 9.67177,2.92243 13.3507,5.47379 3.67877,2.55157 6.51208,5.87441 8.49994,9.96851 1.98768,4.09431 2.98156,9.10823 2.98165,15.04178 -9e-5,4.27231 -0.62312,8.06983 -1.8691,11.39259 -1.24614,3.32291 -2.99657,6.18589 -5.25127,8.58895 -2.25486,2.40319 -4.93983,4.34645 -8.05491,5.8298 -3.11524,1.48347 -6.51224,2.52186 -10.19103,3.11516 2.84808,0.59342 5.45888,2.21034 7.8324,4.85075 2.37339,2.64052 4.74684,6.45288 7.12037,11.4371 l 18.60197,38.98402 z m -5.42928,-82.06226 c -6e-5,-5.6962 -1.80982,-9.79041 -5.42928,-12.28263 -3.61958,-2.49203 -9.04885,-3.7381 -16.28784,-3.7382 h -9.6125 v 32.84271 h 8.90046 c 3.38213,6e-5 6.45278,-0.35596 9.21198,-1.06806 2.75909,-0.71197 5.11771,-1.78002 7.07586,-3.20416 1.95804,-1.42401 3.47112,-3.18926 4.53924,-5.29578 1.06799,-2.10636 1.60202,-4.52432 1.60208,-7.25388 z"
             inkscape:connector-curvature="0" />
          <svg:path
             id="path3061"
             style="font-size:182.28144836px;stroke-width:2.39844012"
             d="m 303.918,435.21234 c -1e-4,9.01918 -1.11265,17.2076 -3.33767,24.56527 -2.22521,7.35774 -5.69639,13.63256 -10.41354,18.82448 -4.71733,5.19194 -10.7548,9.19715 -18.11244,12.01562 -7.35777,2.81848 -16.16922,4.22772 -26.43437,4.22772 H 216.07045 V 378.5164 h 34.44478 c 8.90041,1.2e-4 16.68831,1.11267 23.36371,3.33767 6.67528,2.22523 12.23806,5.6519 16.68837,10.28003 4.45014,4.62834 7.78781,10.50264 10.01302,17.62292 2.22502,7.12045 3.33757,15.60554 3.33767,25.45532 z m -23.49722,1.42407 c -7e-5,-6.28959 -0.50443,-11.89688 -1.51308,-16.82187 -1.00879,-4.92484 -2.71471,-9.09322 -5.11776,-12.50515 -2.40319,-3.41175 -5.62219,-6.00772 -9.657,-7.7879 -4.03493,-1.78 -9.04885,-2.67004 -15.04178,-2.67014 h -11.12558 v 79.65913 h 9.6125 c 10.73984,2e-5 18.89859,-3.20415 24.47627,-9.6125 5.57755,-6.4083 8.36636,-16.49548 8.36643,-30.26157 z"
             inkscape:connector-curvature="0" />
          <svg:path
             id="path3063"
             style="font-size:182.28144836px;stroke-width:2.39844012"
             d="m 401.28903,452.03421 c -9e-5,7.41709 -0.99398,13.92925 -2.98166,19.53651 -1.98785,5.60731 -4.836,10.28005 -8.54444,14.01823 -3.7086,3.7382 -8.233,6.55667 -13.5732,8.45544 -5.34034,1.89876 -11.33331,2.84814 -17.97893,2.84814 -7.47643,0 -13.88476,-0.94938 -19.225,-2.84814 -5.3403,-1.89877 -9.67186,-4.62824 -12.99467,-8.18843 -3.32286,-3.56017 -5.72598,-7.89172 -7.20938,-12.99467 -1.48342,-5.10291 -2.22512,-10.82886 -2.22511,-17.17789 v -77.167 h 21.89513 v 75.83193 c -3e-5,3.91624 0.34116,7.38742 1.02355,10.41354 0.68234,3.02618 1.86907,5.59248 3.56019,7.6989 1.69105,2.10646 3.81233,3.69371 6.36383,4.76175 2.55142,1.06807 5.75558,1.60209 9.6125,1.60208 3.61946,1e-5 6.67529,-0.45984 9.16747,-1.37957 2.49207,-0.9197 4.56884,-2.40311 6.23033,-4.45023 1.66135,-2.04709 2.90741,-4.67272 3.73819,-7.87691 0.83064,-3.20414 1.24599,-7.09067 1.24606,-11.65961 V 378.5164 h 21.89514 z"
             inkscape:connector-curvature="0" />
          <svg:path
             id="path3065"
             style="font-size:182.28144836px;stroke-width:2.39844012"
             d="M 422.56114,396.40633 V 378.5164 h 73.51781 v 17.88993 h -25.63332 v 80.37116 h 25.63332 v 18.06794 h -73.51781 v -18.06794 h 25.63333 v -80.37116 z"
             inkscape:connector-curvature="0" />
          <svg:path
             id="path3067"
             style="font-size:182.28144836px;stroke-width:2.39844012"
             d="m 575.47108,494.84543 -31.15161,-69.4236 -6.40833,-14.95278 v 48.24051 36.13587 H 517.9741 V 378.5164 h 26.8794 l 31.77464,69.86862 5.60729,13.61771 V 410.64706 378.5164 h 19.93704 v 116.32903 z"
             inkscape:connector-curvature="0" />
          <svg:path
             id="path3069"
             style="font-size:182.28144836px;stroke-width:2.39844012"
             d="m 706.93085,436.19139 c -10e-5,10.56193 -1.23133,19.67006 -3.69369,27.32441 -2.46255,7.65442 -5.84473,13.94408 -10.14653,18.86898 -4.30197,4.92493 -9.34556,8.57412 -15.13078,10.94757 -5.78537,2.37346 -11.97118,3.56018 -18.55746,3.56018 -15.30883,0 -26.82008,-5.08809 -34.53379,-15.26429 -7.71375,-10.17617 -11.57061,-24.96575 -11.5706,-44.3688 -10e-6,-10.56181 1.23122,-19.66994 3.69369,-27.32441 2.46245,-7.65431 5.84462,-13.94396 10.14652,-18.86898 4.30187,-4.92481 9.34546,-8.574 15.13079,-10.94757 5.78526,-2.37334 11.97107,-3.56006 18.55746,-3.56018 15.30873,1.2e-4 26.81998,5.07337 34.53379,15.21979 7.71364,10.14661 11.5705,24.95103 11.5706,44.4133 z m -23.1412,1.06805 c -7e-5,-13.76597 -1.8395,-24.03116 -5.51829,-30.79559 -3.67892,-6.76426 -9.73123,-10.14643 -18.15694,-10.14653 -4.21293,1e-4 -7.80278,0.87531 -10.76956,2.62564 -2.96685,1.75052 -5.41448,4.31681 -7.34288,7.6989 -1.92846,3.38226 -3.3377,7.55064 -4.22772,12.50514 -0.89007,4.95467 -1.33509,10.63612 -1.33507,17.04439 -2e-5,13.76609 1.85424,24.03128 5.56279,30.79559 3.70849,6.76438 9.74597,10.14655 18.11244,10.14653 4.21283,2e-5 7.81752,-0.87519 10.81406,-2.62564 2.99643,-1.7504 5.44405,-4.31669 7.34288,-7.69889 1.8987,-3.38215 3.2931,-7.55053 4.18322,-12.50515 0.88997,-4.95455 1.335,-10.636 1.33507,-17.04439 z"
             inkscape:connector-curvature="0" />
        </svg:g>
      </svg:g>
      <svg:g
         style="font-size:167px;font-family:sans-serif;text-anchor:middle;fill:#00979c;stroke:#00979c;stroke-width:20"
         transform="translate(-365.79452,0.52773446)"
         id="g8-1"
         font-size="167">
        <svg:g
           id="text10-7"
           style="font-size:197.21893311px;stroke-width:23.61903381"
           transform="scale(1.5645974,0.63914206)">
          <svg:path
             id="path3078"
             style="font-size:197.21893311px;stroke-width:23.61903381"
             d="m 321.41756,266.30877 v -17.43 h 53.25297 v 17.43 z"
             inkscape:connector-curvature="0" />
        </svg:g>
        <svg:g
           id="text12-4" />
      </svg:g>
    </svg:g>
    <svg:g
       id="g6562"
       transform="matrix(0.09168099,0,0,0.09168099,109.0943,225.54986)">
      <svg:path
         id="path6545"
         d="M 69.298,0.005 C 67.645,0.056 65.865,0.667 63.845,2.26 58.9,0.353 54.102,-0.31 49.813,3.573 43.19,2.714 41.038,4.487 39.407,6.557 37.953,6.527 28.528,5.062 24.205,11.51 13.343,10.225 9.91,17.899 13.8,25.056 c -2.219,3.434 -4.518,6.827 0.67,13.375 -1.835,3.646 -0.697,7.602 3.626,12.389 -1.14,5.127 1.102,8.743 5.125,11.562 -0.753,7.015 6.433,11.094 8.578,12.547 0.824,4.087 2.541,7.945 10.748,10.077 1.354,6.092 6.286,7.144 11.063,8.422 -15.787,9.177 -29.325,21.25 -29.233,50.875 l -2.313,4.125 c -18.102,11.008 -34.388,46.39 -8.92,75.148 1.663,9.002 4.453,15.468 6.937,22.624 3.715,28.836 27.962,42.339 34.358,43.936 9.371,7.138 19.352,13.911 32.86,18.656 12.731,13.131 26.525,18.136 40.394,18.128 0.204,0 28.277,-4.996 41.01,-18.128 13.506,-4.745 23.487,-11.518 32.86,-18.656 6.394,-1.597 30.641,-15.1 34.356,-43.936 2.484,-7.156 5.274,-13.622 6.938,-22.624 25.466,-28.761 9.181,-64.144 -8.92,-75.152 l -2.317,-4.125 c 0.092,-29.622 -13.446,-41.696 -29.233,-50.875 4.776,-1.278 9.71,-2.33 11.062,-8.422 8.207,-2.133 9.925,-5.99 10.748,-10.077 2.146,-1.453 9.331,-5.532 8.58,-12.547 4.021,-2.819 6.264,-6.436 5.123,-11.562 4.324,-4.787 5.461,-8.743 3.626,-12.39 5.19,-6.544 2.887,-9.937 0.671,-13.371 3.888,-7.157 0.457,-14.832 -10.409,-13.546 -4.32,-6.448 -13.744,-4.984 -15.202,-4.954 -1.63,-2.069 -3.782,-3.842 -10.405,-2.983 -4.289,-3.883 -9.085,-3.221 -14.032,-1.313 -5.874,-4.635 -9.76,-0.92 -14.2,0.485 -7.112,-2.324 -8.739,0.859 -12.233,2.156 -7.756,-1.639 -10.113,1.929 -13.83,5.695 l -4.326,-0.086 c -11.698,6.894 -17.51,20.932 -19.57,28.149 -2.06,-7.218 -7.859,-21.256 -19.555,-28.149 l -4.325,0.086 C 100.387,6.829 98.031,3.261 90.275,4.9 86.78,3.603 85.16,0.42 78.042,2.744 75.128,1.822 72.448,-0.094 69.293,0.004 L -11,141"
         inkscape:connector-curvature="0" />
      <svg:path
         id="path6547"
         d="m 46.008,30.334 c 31.036,16.001 49.079,28.945 58.964,39.969 -5.062,20.289 -31.47,21.215 -41.126,20.646 1.977,-0.92 3.627,-2.023 4.212,-3.716 -2.423,-1.722 -11.014,-0.182 -17.012,-3.551 2.304,-0.478 3.382,-0.943 4.459,-2.643 -5.666,-1.807 -11.77,-3.365 -15.36,-6.359 1.937,0.024 3.746,0.434 6.276,-1.321 -5.075,-2.735 -10.491,-4.903 -14.699,-9.084 2.624,-0.064 5.453,-0.026 6.276,-0.991 -4.645,-2.878 -8.565,-6.078 -11.809,-9.579 3.672,0.443 5.223,0.062 6.111,-0.578 -3.512,-3.597 -7.956,-6.634 -10.075,-11.066 2.726,0.94 5.221,1.3 7.019,-0.082 -1.193,-2.692 -6.305,-4.28 -9.249,-10.571 2.871,0.279 5.915,0.626 6.524,0 -1.332,-5.428 -3.618,-8.48 -5.86,-11.642 6.143,-0.091 15.451,0.024 15.03,-0.495 L 31.89,15.39 c 6.001,-1.616 12.141,0.259 16.599,1.651 2.001,-1.579 -0.036,-3.576 -2.478,-5.615 5.1,0.681 9.708,1.853 13.874,3.468 2.225,-2.009 -1.445,-4.019 -3.221,-6.028 7.879,1.494 11.217,3.595 14.534,5.698 2.407,-2.307 0.138,-4.268 -1.486,-6.276 5.941,2.2 9.001,5.041 12.222,7.845 1.092,-1.474 2.775,-2.555 0.743,-6.111 4.218,2.431 7.395,5.296 9.745,8.506 2.61,-1.662 1.555,-3.934 1.569,-6.029 4.384,3.566 7.166,7.361 10.571,11.066 0.686,-0.5 1.286,-2.193 1.817,-4.872 10.457,10.145 25.234,35.7 3.798,45.832 C 91.934,49.479 70.146,38.542 46.001,30.338 l 0.007,-0.004 m 164.678,0 c -31.032,16.003 -49.075,28.943 -58.959,39.969 5.062,20.289 31.469,21.215 41.125,20.646 -1.977,-0.92 -3.627,-2.023 -4.211,-3.716 2.423,-1.722 11.014,-0.182 17.011,-3.551 -2.304,-0.478 -3.381,-0.943 -4.459,-2.643 5.667,-1.807 11.771,-3.365 15.36,-6.359 -1.937,0.024 -3.746,0.434 -6.276,-1.321 5.076,-2.735 10.492,-4.903 14.7,-9.084 -2.625,-0.064 -5.454,-0.026 -6.276,-0.991 4.645,-2.878 8.565,-6.078 11.809,-9.579 -3.673,0.443 -5.223,0.062 -6.111,-0.578 3.511,-3.597 7.956,-6.634 10.075,-11.066 -2.727,0.94 -5.222,1.3 -7.02,-0.082 1.193,-2.692 6.306,-4.28 9.249,-10.571 -2.87,0.279 -5.915,0.626 -6.524,0 1.335,-5.43 3.621,-8.482 5.863,-11.644 -6.143,-0.091 -15.451,0.024 -15.03,-0.495 l 3.799,-3.882 c -6.001,-1.615 -12.141,0.26 -16.599,1.652 -2.001,-1.579 0.035,-3.576 2.477,-5.615 -5.099,0.68 -9.708,1.853 -13.873,3.468 -2.226,-2.009 1.445,-4.019 3.221,-6.028 -7.879,1.494 -11.217,3.595 -14.535,5.698 -2.407,-2.307 -0.137,-4.268 1.487,-6.276 -5.941,2.2 -9.001,5.041 -12.222,7.845 -1.093,-1.474 -2.775,-2.555 -0.744,-6.111 -4.217,2.431 -7.394,5.296 -9.744,8.506 -2.61,-1.662 -1.555,-3.935 -1.569,-6.029 -4.384,3.566 -7.166,7.36 -10.571,11.066 -0.686,-0.5 -1.286,-2.193 -1.817,-4.873 -10.457,10.146 -25.234,35.701 -3.798,45.833 18.233,-15.05 40.02,-25.985 64.166,-34.189 h -0.004"
         inkscape:connector-curvature="0"
         style="fill:#75a928" />
      <svg:path
         id="path6549"
         d="m 165.933,236.933 c 0.108,18.933 -16.449,34.362 -36.98,34.461 -20.532,0.1 -37.264,-15.167 -37.372,-34.1 a 21.72,21.72 0 0 1 0,-0.361 c -0.108,-18.932 16.448,-34.361 36.98,-34.461 20.532,-0.1 37.263,15.167 37.372,34.1 v 0.361 m -58.687,-97.929 c 15.404,10.093 18.181,32.969 6.202,51.095 -11.979,18.127 -34.177,24.641 -49.581,14.549 -15.404,-10.093 -18.18,-32.969 -6.202,-51.095 11.979,-18.127 34.177,-24.641 49.581,-14.549 m 41.576,-1.827 c -15.403,10.092 -18.18,32.969 -6.202,51.095 11.979,18.127 34.177,24.641 49.581,14.548 15.404,-10.092 18.181,-32.968 6.202,-51.095 -11.978,-18.126 -34.176,-24.64 -49.581,-14.548 M 30.258,155.504 c 16.631,-4.458 5.615,68.803 -7.917,62.792 C 7.456,206.324 2.662,171.263 30.258,155.504 m 192.195,-0.913 c -16.633,-4.457 -5.615,68.807 7.917,62.796 14.885,-11.973 19.679,-47.038 -7.917,-62.796 m -56.507,-54.557 c 28.701,-4.846 52.583,12.206 51.619,43.328 -0.944,11.932 -62.193,-41.551 -51.619,-43.328 m -79.3,-0.913 C 57.943,94.274 34.063,111.33 35.027,142.45 35.971,154.381 97.221,100.898 86.646,99.121 m 41.228,-7.258 c -17.13,-0.446 -33.57,12.713 -33.61,20.346 -0.047,9.274 13.544,18.77 33.727,19.011 20.61,0.147 33.762,-7.601 33.828,-17.172 0.076,-10.844 -18.745,-22.353 -33.945,-22.186 v 0.001 m 1.046,190.18 c 14.935,-0.652 34.975,4.81 35.015,12.057 0.248,7.036 -18.175,22.934 -36.005,22.627 -18.466,0.797 -36.573,-15.126 -36.336,-20.645 -0.277,-8.092 22.484,-14.41 37.326,-14.039 M 73.756,239.098 c 10.633,12.81 15.481,35.316 6.607,41.951 -8.395,5.065 -28.782,2.979 -43.272,-17.838 -9.773,-17.468 -8.514,-35.243 -1.652,-40.465 10.261,-6.25 26.115,2.193 38.318,16.352 h -0.001 m 108.2,-4.061 c -11.505,13.475 -17.911,38.053 -9.519,45.969 8.025,6.15 29.567,5.29 45.479,-16.789 11.554,-14.829 7.683,-39.594 1.083,-46.17 -9.804,-7.583 -23.879,2.122 -37.043,16.986 v 0.004"
         inkscape:connector-curvature="0"
         style="fill:#bc1142" />
    </svg:g>
  </svg:g>
</svg:svg>
