21:50:11.251 -> TeelSys_SED1330 Test!
21:50:11.298 -> SED1330::setupConnection(1)
21:50:11.298 -> SED1330::Reset()
21:50:11.346 -> SED1330::WriteCommand <command: 40, _lastCommand: 00, CMD_MWRITE: 42>
21:50:11.392 -> SED1330::writeJustData(0x40)
21:50:11.438 -> SED1330::writeInfo(0x40)
21:50:11.485 -> SED1330::WriteCommand(0x40)
21:50:11.485 -> SED1330::writeJustData(0x30)
21:50:11.532 -> SED1330::writeInfo(0x30)
21:50:11.580 -> SED1330::WriteData(0x30)
21:50:11.580 -> SED1330::writeJustData(0x87)
21:50:11.628 -> SED1330::writeInfo(0x87)
21:50:11.628 -> SED1330::WriteData(0x87)
21:50:11.675 -> SED1330::writeJustData(0x07)
21:50:11.722 -> SED1330::writeInfo(0x07)
21:50:11.722 -> SED1330::WriteData(0x07)
21:50:11.769 -> SED1330::writeJustData(0x1F)
21:50:11.769 -> SED1330::writeInfo(0x1F)
21:50:11.815 -> SED1330::WriteData(0x1F)
21:50:11.815 -> SED1330::writeJustData(0x23)
21:50:11.863 -> SED1330::writeInfo(0x23)
21:50:11.909 -> SED1330::WriteData(0x23)
21:50:11.909 -> SED1330::writeJustData(0x7F)
21:50:11.955 -> SED1330::writeInfo(0x7F)
21:50:12.003 -> SED1330::WriteData(0x7F)
21:50:12.003 -> SED1330::writeJustData(0x20)
21:50:12.050 -> SED1330::writeInfo(0x20)
21:50:12.050 -> SED1330::WriteData(0x20)
21:50:12.098 -> SED1330::writeJustData(0x00)
21:50:12.145 -> SED1330::writeInfo(0x00)
21:50:12.145 -> SED1330::WriteData(0x00)
21:50:12.192 -> SED1330::WriteCommand <command: 44, _lastCommand: 40, CMD_MWRITE: 42>
21:50:12.240 -> SED1330::writeJustData(0x44)
21:50:12.288 -> SED1330::writeInfo(0x44)
21:50:12.335 -> SED1330::WriteCommand(0x44)
21:50:12.335 -> SED1330::writeJustData(0x00)
21:50:12.381 -> SED1330::writeInfo(0x00)
21:50:12.381 -> SED1330::WriteData(0x00)
21:50:12.427 -> SED1330::writeJustData(0x00)
21:50:12.474 -> SED1330::writeInfo(0x00)
21:50:12.474 -> SED1330::WriteData(0x00)
21:50:12.522 -> SED1330::writeJustData(0x7F)
21:50:12.522 -> SED1330::writeInfo(0x7F)
21:50:12.569 -> SED1330::WriteData(0x7F)
21:50:12.614 -> SED1330::writeJustData(0x00)
21:50:12.614 -> SED1330::writeInfo(0x00)
21:50:12.661 -> SED1330::WriteData(0x00)
21:50:12.661 -> SED1330::writeJustData(0x02)
21:50:12.709 -> SED1330::writeInfo(0x02)
21:50:12.757 -> SED1330::WriteData(0x02)
21:50:12.757 -> SED1330::writeJustData(0x7F)
21:50:12.805 -> SED1330::writeInfo(0x7F)
21:50:12.852 -> SED1330::WriteData(0x7F)
21:50:12.852 -> SED1330::WriteCommand <command: 5A, _lastCommand: 44, CMD_MWRITE: 42>
21:50:12.946 -> SED1330::writeJustData(0x5A)
21:50:12.946 -> SED1330::writeInfo(0x5A)
21:50:12.993 -> SED1330::WriteCommand(0x5A)
21:50:13.040 -> SED1330::writeJustData(0x00)
21:50:13.040 -> SED1330::writeInfo(0x00)
21:50:13.087 -> SED1330::WriteData(0x00)
21:50:13.087 -> SED1330::WriteCommand <command: 5B, _lastCommand: 5A, CMD_MWRITE: 42>
21:50:13.180 -> SED1330::writeJustData(0x5B)
21:50:13.227 -> SED1330::writeInfo(0x5B)
21:50:13.227 -> SED1330::WriteCommand(0x5B)
21:50:13.273 -> SED1330::writeJustData(0x01)
21:50:13.321 -> SED1330::writeInfo(0x01)
21:50:13.321 -> SED1330::WriteData(0x01)
21:50:13.366 -> SED1330::WriteCommand <command: 58, _lastCommand: 5B, CMD_MWRITE: 42>
21:50:13.414 -> SED1330::writeJustData(0x58)
21:50:13.462 -> SED1330::writeInfo(0x58)
21:50:13.462 -> SED1330::WriteCommand(0x58)
21:50:13.510 -> SED1330::writeJustData(0x56)
21:50:13.558 -> SED1330::writeInfo(0x56)
21:50:13.558 -> SED1330::WriteData(0x56)
21:50:13.606 -> SED1330::clearDisplayScreen(0x0000, 0200, 0)
21:50:14.032 -> SED1330::clearDisplayScreen(0x0200, 1000, 1)
21:50:14.079 -> SED1330::ClearDisplay()
21:50:14.079 -> SED1330::WriteCommand <command: 46, _lastCommand: 42, CMD_MWRITE: 42>
21:50:14.172 -> SED1330::writeJustData(0x46)
21:50:14.220 -> SED1330::writeInfo(0x46)
21:50:14.220 -> SED1330::WriteCommand(0x46)
21:50:14.267 -> SED1330::writeJustData(0x00)
21:50:14.267 -> SED1330::writeInfo(0x00)
21:50:14.314 -> SED1330::WriteData(0x00)
21:50:14.314 -> SED1330::writeJustData(0x00)
21:50:14.361 -> SED1330::writeInfo(0x00)
21:50:14.406 -> SED1330::WriteData(0x00)
21:50:14.406 -> SED1330::WriteCommand <command: 5D, _lastCommand: 46, CMD_MWRITE: 42>
21:50:14.499 -> SED1330::writeJustData(0x5D)
21:50:14.546 -> SED1330::writeInfo(0x5D)
21:50:14.546 -> SED1330::WriteCommand(0x5D)
21:50:14.594 -> SED1330::writeJustData(0x04)
21:50:14.640 -> SED1330::writeInfo(0x04)
21:50:14.640 -> SED1330::WriteData(0x04)
21:50:14.686 -> SED1330::writeJustData(0x86)
21:50:14.686 -> SED1330::writeInfo(0x86)
21:50:14.732 -> SED1330::WriteData(0x86)
21:50:14.779 -> SED1330::WriteCommand <command: 59, _lastCommand: 5D, CMD_MWRITE: 42>
21:50:14.831 -> SED1330::writeJustData(0x59)
21:50:14.873 -> SED1330::writeInfo(0x59)
21:50:14.873 -> SED1330::WriteCommand(0x59)
21:50:14.921 -> SED1330::writeJustData(0x56)
21:50:14.969 -> SED1330::writeInfo(0x56)
21:50:14.969 -> SED1330::WriteData(0x56)
21:50:15.017 -> SED1330::Init()
21:50:15.017 -> SED1330::begin()
21:50:15.065 -> Begin Done!
21:50:15.065 -> TS_LCD::write(0x48) START
21:50:15.065 -> SED1330::WriteCommand <command: 4C, _lastCommand: 59, CMD_MWRITE: 42>
21:50:15.161 -> SED1330::writeJustData(0x4C)
21:50:15.209 -> SED1330::writeInfo(0x4C)
21:50:15.209 -> SED1330::WriteCommand(0x4C)
21:50:15.257 -> SED1330::SetCursorDirection(1)
21:50:15.257 -> SED1330::WriteCommand <command: 42, _lastCommand: 4C, CMD_MWRITE: 42>
21:50:15.351 -> SED1330::writeJustData(0x42)
21:50:15.398 -> SED1330::writeInfo(0x42)
21:50:15.398 -> SED1330::WriteCommand(0x42)
21:50:15.445 -> SED1330::writeJustData(0x48)
21:50:15.493 -> SED1330::writeInfo(0x48)
21:50:15.493 -> SED1330::WriteData(0x48)
21:50:15.541 -> TS_LCD::write(0x48) END
21:50:15.541 -> TS_LCD::write(0x65) START
21:50:15.589 -> SED1330::writeJustData(0x65)
21:50:15.589 -> SED1330::writeInfo(0x65)
21:50:15.637 -> SED1330::WriteData(0x65)
21:50:15.685 -> TS_LCD::write(0x65) END
21:50:15.685 -> TS_LCD::write(0x6C) START
21:50:15.733 -> SED1330::writeJustData(0x6C)
21:50:15.733 -> SED1330::writeInfo(0x6C)
21:50:15.781 -> SED1330::WriteData(0x6C)
21:50:15.781 -> TS_LCD::write(0x6C) END
21:50:15.828 -> TS_LCD::write(0x6C) START
21:50:15.875 -> SED1330::writeJustData(0x6C)
21:50:15.875 -> SED1330::writeInfo(0x6C)
21:50:15.921 -> SED1330::WriteData(0x6C)
21:50:15.921 -> TS_LCD::write(0x6C) END
21:50:15.969 -> TS_LCD::write(0x6F) START
21:50:16.015 -> SED1330::writeJustData(0x6F)
21:50:16.015 -> SED1330::writeInfo(0x6F)
21:50:16.061 -> SED1330::WriteData(0x6F)
21:50:16.061 -> TS_LCD::write(0x6F) END
21:50:16.109 -> TS_LCD::write(0x20) START
21:50:16.157 -> SED1330::writeJustData(0x20)
21:50:16.157 -> SED1330::writeInfo(0x20)
21:50:16.205 -> SED1330::WriteData(0x20)
21:50:16.205 -> TS_LCD::write(0x20) END
21:50:16.253 -> TS_LCD::write(0x57) START
21:50:16.301 -> SED1330::writeJustData(0x57)
21:50:16.301 -> SED1330::writeInfo(0x57)
21:50:16.349 -> SED1330::WriteData(0x57)
21:50:16.349 -> TS_LCD::write(0x57) END
21:50:16.397 -> TS_LCD::write(0x6F) START
21:50:16.397 -> SED1330::writeJustData(0x6F)
21:50:16.445 -> SED1330::writeInfo(0x6F)
21:50:16.492 -> SED1330::WriteData(0x6F)
21:50:16.492 -> TS_LCD::write(0x6F) END
21:50:16.539 -> TS_LCD::write(0x72) START
21:50:16.539 -> SED1330::writeJustData(0x72)
21:50:16.586 -> SED1330::writeInfo(0x72)
21:50:16.633 -> SED1330::WriteData(0x72)
21:50:16.633 -> TS_LCD::write(0x72) END
21:50:16.679 -> TS_LCD::write(0x6C) START
21:50:16.679 -> SED1330::writeJustData(0x6C)
21:50:16.727 -> SED1330::writeInfo(0x6C)
21:50:16.774 -> SED1330::WriteData(0x6C)
21:50:16.774 -> TS_LCD::write(0x6C) END
21:50:16.821 -> TS_LCD::write(0x64) START
21:50:16.821 -> SED1330::writeJustData(0x64)
21:50:16.869 -> SED1330::writeInfo(0x64)
21:50:16.869 -> SED1330::WriteData(0x64)
21:50:16.916 -> TS_LCD::write(0x64) END
21:50:16.962 -> SED1330::WriteCommand <command: 47, _lastCommand: 42, CMD_MWRITE: 42>
21:50:17.009 -> SED1330::writeJustData(0x47)
21:50:17.055 -> SED1330::writeInfo(0x47)
21:50:17.055 -> SED1330::WriteCommand(0x47)
21:50:17.103 -> SED1330::setupConnection(0)
21:50:17.151 -> SED1330::readJustData() = 0x0B
21:50:17.151 -> SED1330::readInfo() = 0x0B
21:50:17.199 -> SED1330::ReadData() = 0x0B
21:50:17.247 -> SED1330::readJustData() = 0x00
21:50:17.247 -> SED1330::readInfo() = 0x00
21:50:17.295 -> SED1330::ReadData() = 0x00
21:50:17.341 -> SED1330::Location() = {address: 0x000B, x:0x0B, y:0x00}
21:50:17.388 -> Cursor Address: 0x000B (11)
21:50:17.388 -> Cursor X: 0x0B (11)
21:50:17.435 -> Cursor Y: 0x00 (0)
21:50:17.435 -> Test Done!
