<?xml version="1.0" encoding="UTF-8" standalone="no"?>
<!-- Created with Inkscape (http://www.inkscape.org/) -->

<svg
   xmlns:dc="http://purl.org/dc/elements/1.1/"
   xmlns:cc="http://creativecommons.org/ns#"
   xmlns:rdf="http://www.w3.org/1999/02/22-rdf-syntax-ns#"
   xmlns:svg="http://www.w3.org/2000/svg"
   xmlns="http://www.w3.org/2000/svg"
   xmlns:sodipodi="http://sodipodi.sourceforge.net/DTD/sodipodi-0.dtd"
   xmlns:inkscape="http://www.inkscape.org/namespaces/inkscape"
   width="178mm"
   height="95.000008mm"
   viewBox="0 0 178 95.000008"
   version="1.1"
   id="svg4605"
   inkscape:version="0.92.2 (5c3e80d, 2017-08-06)"
   sodipodi:docname="Bottom Cut (Mirror).svg">
  <defs
     id="defs4599" />
  <sodipodi:namedview
     id="base"
     pagecolor="#ffffff"
     bordercolor="#666666"
     borderopacity="1.0"
     inkscape:pageopacity="0.0"
     inkscape:pageshadow="2"
     inkscape:zoom="1.4"
     inkscape:cx="303.82354"
     inkscape:cy="222.26697"
     inkscape:document-units="mm"
     inkscape:current-layer="layer1"
     showgrid="false"
     inkscape:window-width="1920"
     inkscape:window-height="1137"
     inkscape:window-x="1912"
     inkscape:window-y="-8"
     inkscape:window-maximized="1"
     fit-margin-top="0"
     fit-margin-left="0"
     fit-margin-right="0"
     fit-margin-bottom="0" />
  <metadata
     id="metadata4602">
    <rdf:RDF>
      <cc:Work
         rdf:about="">
        <dc:format>image/svg+xml</dc:format>
        <dc:type
           rdf:resource="http://purl.org/dc/dcmitype/StillImage" />
        <dc:title></dc:title>
      </cc:Work>
    </rdf:RDF>
  </metadata>
  <g
     inkscape:label="Layer 1"
     inkscape:groupmode="layer"
     id="layer1"
     transform="translate(0,-202)">
    <rect
       style="fill:none;fill-opacity:1;stroke:#000000;stroke-width:0.29400635;stroke-miterlimit:4;stroke-dasharray:none;stroke-opacity:1"
       id="rect5150"
       width="177.70599"
       height="94.705994"
       x="-177.853"
       y="202.147"
       transform="scale(-1,1)" />
    <circle
       style="fill:none;fill-opacity:1;stroke:#000000;stroke-width:0.02130417;stroke-miterlimit:4;stroke-dasharray:none;stroke-opacity:1"
       id="path5152"
       cx="-170.5"
       cy="289.5"
       r="1.2393479"
       transform="scale(-1,1)" />
    <circle
       style="fill:none;fill-opacity:1;stroke:#000000;stroke-width:0.02130417;stroke-miterlimit:4;stroke-dasharray:none;stroke-opacity:1"
       id="path5152-2"
       cx="-170.5"
       cy="234.5"
       r="1.2393479"
       transform="scale(-1,1)" />
    <circle
       style="fill:none;fill-opacity:1;stroke:#000000;stroke-width:0.02130417;stroke-miterlimit:4;stroke-dasharray:none;stroke-opacity:1"
       id="path5152-7"
       cx="-7.5"
       cy="234.5"
       r="1.2393479"
       transform="scale(-1,1)" />
    <circle
       style="fill:none;fill-opacity:1;stroke:#000000;stroke-width:0.02130417;stroke-miterlimit:4;stroke-dasharray:none;stroke-opacity:1"
       id="path5152-74"
       cx="-7.5"
       cy="289.5"
       r="1.2393479"
       transform="scale(-1,1)" />
    <circle
       style="fill:none;fill-opacity:1;stroke:#000000;stroke-width:0.02130417;stroke-miterlimit:4;stroke-dasharray:none;stroke-opacity:1"
       id="path5152-2-1"
       cx="-145.5"
       cy="216"
       r="1.2393479"
       transform="scale(-1,1)" />
    <circle
       style="fill:none;fill-opacity:1;stroke:#000000;stroke-width:0.02130417;stroke-miterlimit:4;stroke-dasharray:none;stroke-opacity:1"
       id="path5152-2-6"
       cx="-140.39999"
       cy="268.10001"
       r="1.2393479"
       transform="scale(-1,1)" />
    <circle
       style="fill:none;fill-opacity:1;stroke:#000000;stroke-width:0.02130417;stroke-miterlimit:4;stroke-dasharray:none;stroke-opacity:1"
       id="path5152-2-3"
       cx="-97.300003"
       cy="217.3"
       r="1.2393479"
       transform="scale(-1,1)" />
    <circle
       style="fill:none;fill-opacity:1;stroke:#000000;stroke-width:0.02130417;stroke-miterlimit:4;stroke-dasharray:none;stroke-opacity:1"
       id="path5152-2-2"
       cx="-112.5"
       cy="268.10001"
       r="1.2393479"
       transform="scale(-1,1)" />
    <circle
       style="fill:none;fill-opacity:1;stroke:#000000;stroke-width:0.02130417;stroke-miterlimit:4;stroke-dasharray:none;stroke-opacity:1"
       id="path5152-2-67"
       cx="-82.5"
       cy="225.5"
       r="1.2393479"
       transform="scale(-1,1)" />
    <circle
       style="fill:none;fill-opacity:1;stroke:#000000;stroke-width:0.02130417;stroke-miterlimit:4;stroke-dasharray:none;stroke-opacity:1"
       id="path5152-2-5"
       cx="-82.5"
       cy="283.5"
       r="1.2393479"
       transform="scale(-1,1)" />
    <circle
       style="fill:none;fill-opacity:1;stroke:#000000;stroke-width:0.02130417;stroke-miterlimit:4;stroke-dasharray:none;stroke-opacity:1"
       id="path5152-2-11"
       cx="-33.5"
       cy="283.5"
       r="1.2393479"
       transform="scale(-1,1)" />
    <circle
       style="fill:none;fill-opacity:1;stroke:#000000;stroke-width:0.02130417;stroke-miterlimit:4;stroke-dasharray:none;stroke-opacity:1"
       id="path5152-2-0"
       cx="-33.5"
       cy="225.5"
       r="1.2393479"
       transform="scale(-1,1)" />
  </g>
</svg>
